<svg width="376" height="439" viewBox="0 0 376 439" fill="none" xmlns="http://www.w3.org/2000/svg">
<path d="M250.5 0.833496H125.5V42.5002H250.5V0.833496ZM167.167 271.667H208.833V146.667H167.167V271.667ZM334.458 133.958L364.042 104.375C355.083 93.7502 345.292 83.7502 334.667 75.0002L305.083 104.583C272.792 78.7502 232.167 63.3335 188 63.3335C84.4583 63.3335 0.5 147.292 0.5 250.833C0.5 354.375 84.25 438.333 188 438.333C291.75 438.333 375.5 354.375 375.5 250.833C375.5 206.667 360.083 166.042 334.458 133.958ZM188 396.667C107.375 396.667 42.1667 331.458 42.1667 250.833C42.1667 170.208 107.375 105 188 105C268.625 105 333.833 170.208 333.833 250.833C333.833 331.458 268.625 396.667 188 396.667Z" fill="black"/>
</svg>
